{
  "App": "Kraken2",
  "Source": {
    "Sites": [
      {
        "Host": "Amazon",
        "Base_URL": "https://benlangmead.github.io/aws-indexes/k2"
      },
      {
        "Host": "Johns Hopkins University",
        "Base_URL": "ftp://ftp.ccb.jhu.edu/pub/data/kraken2_dbs/"
      }
    ]
  },
  "Databases": [
    {
      "App": "Kraken2",
      "Version": "Minikraken_v1_8GB_20181102",
      "Kmer_Hash": "0810ce37a269c35bea91e49aa1c92668bd732e9b6e7ececbabb3b494d1e4b54c",
      "Archives": [
        {
          "Hash": "5ed337d31f1ab3104338a1d997789f60d25c9abcf874987e927012225ea63f26",
          "Location": "/cephfs/abteilung4/NGS/ReferenceDB/kraken2/_downloads/ftp.ccb.jhu.edu/minikraken2_v1_8GB.tgz",
          "Original": 0
        },
        {
          "Hash": "c66a9f5b0577616d6b59d0c342aa3e83cc08aeb9c20828e759b402e9d1e20d15",
          "Location": "/cephfs/abteilung4/NGS/ReferenceDB/kraken2/_downloads/ftp.ccb.jhu.edu/minikraken2_v1_8GB_bracken.tar.gz",
          "Original": 0
        }
      ]
    },
    {
      "App": "Kraken2",
      "Version": "Minikraken2_v1_8GB_201904",
      "Kmer_Hash": "e1a22974e344a90bfe7ad53974f60157fd3c2b211dd1d7f20384cde0f0f3516c",
      "Archives": [
        {
          "Hash": "de3a0ba7d170ab82ca786fc13ec6bdd25f45403cd72d1282bb9cba3ba81154d6",
          "Location": "/cephfs/abteilung4/brendebach/databases/AQUAMIS/download/aws/minikraken2_v1_8GB_201904.tgz",
          "Link": "https://genome-idx.s3.amazonaws.com/kraken/minikraken2_v1_8GB_201904.tgz",
          "Original": 1
        },
        {
          "Hash": "de3a0ba7d170ab82ca786fc13ec6bdd25f45403cd72d1282bb9cba3ba81154d6",
          "Location": "/cephfs/abteilung4/brendebach/databases/AQUAMIS/download/ftp.ccb.jhu.edu/old/minikraken2_v1_8GB_201904.tgz",
          "Link": "ftp://ftp.ccb.jhu.edu/pub/data/kraken2_dbs/old/minikraken2_v1_8GB_201904.tgz",
          "Original": 1
        },
        {
          "Hash": "de3a0ba7d170ab82ca786fc13ec6bdd25f45403cd72d1282bb9cba3ba81154d6",
          "Location": "/cephfs/abteilung4/NGS/ReferenceDB/kraken2/_downloads/ftp.ccb.jhu.edu/minikraken2_v1_8GB_201904_UPDATE.tgz",
          "Original": 1
        }
      ]
    },
    {
      "App": "Kraken2",
      "Version": "Minikraken_8GB_20200327",
      "Kmer_Hash": "b7773bc16b6da43727881a691fac3667aa0022c0c418331ad613a8402de9b7df",
      "Archives": [
        {
          "Hash": "eddf8aea2a67daa72b92543b5067c6102833a49db48edc6ff66917b50a1c7826",
          "Location": "/cephfs/abteilung4/brendebach/databases/AQUAMIS/download/ftp.ccb.jhu.edu/minikraken_8GB_202003.tgz",
          "Link": "ftp://ftp.ccb.jhu.edu/pub/data/kraken2_dbs/minikraken_8GB_202003.tgz",
          "Original": 1
        },
        {
          "Hash": "eddf8aea2a67daa72b92543b5067c6102833a49db48edc6ff66917b50a1c7826",
          "Location": "/cephfs/abteilung4/NGS/ReferenceDB/kraken2/_downloads/ftp.ccb.jhu.edu/minikraken_8GB_202003.tgz",
          "Link": "ftp://ftp.ccb.jhu.edu/pub/data/kraken2_dbs/minikraken_8GB_202003.tgz",
          "Original": 1
        },
        {
          "Hash": "8a9181222006785f1435c34c2aaf5032db8f1d0961755a90289fa63fb7836bbe",
          "Location": "/cephfs/abteilung4/brendebach/databases/AQUAMIS/download/seafile/minikraken2.tar.gz",
          "Link": "https://seafile.bfr.berlin/f/8ca1b4d2c97341498698/?dl=1",
          "Original": 0
        }
      ]
    },
    {
      "App": "Kraken2",
      "Version": "Standard_8GB_20210517",
      "Kmer_Hash": "73eacf6d6260e39485b64e2925d731bbeb2efc172928921639156c749afd96df",
      "Archives": [
        {
          "Hash": "3e1e19e7f4e4f31d6c36264f0a52eecdb05864e2b2a24233c2b68de64d924210",
          "Location": "/cephfs/abteilung4/brendebach/databases/AQUAMIS/download/aws/k2_standard_8gb_20210517.tar.gz",
          "Link": "https://genome-idx.s3.amazonaws.com/kraken/k2_standard_8gb_20210517.tar.gz",
          "Original": 1
        },
        {
          "Hash": "3e1e19e7f4e4f31d6c36264f0a52eecdb05864e2b2a24233c2b68de64d924210",
          "Location": "/cephfs/abteilung4/NGS/ReferenceDB/kraken2/_downloads/aws/k2_standard_8gb_20210517.tar.gz",
          "Link": "https://genome-idx.s3.amazonaws.com/kraken/k2_standard_8gb_20210517.tar.gz",
          "Original": 1
        }
      ]
    }
  ]
}