"sample"	"total_reads_before"	"total_bases_before"	"total_reads_after"	"total_bases_after"	"q20_rate_after"	"q30_rate_after"	"duplication_rate"	"insert_size_peak"
"sample1"	2937070	430018722	2872774	420654785	0.954139	0.8826	0.0178735	260
"sample2"	412	67153	298	45800	0.945764	0.867686	0	55
"sample3"	1706392	250815295	1656120	243422282	0.93527	0.854581	0.0183487	261
"sample4"	2	292	2	292	0.993151	0.94863	0	146
"sample5"	31534	4647187	29896	4404101	0.921952	0.83648	0.0165498	260
"sample6"	4113230	608294213	3958838	584442877	0.925034	0.849506	0.0307213	261
"sample7"	2693314	406690414	2158996	323096168	0.953341	0.856845	0.00629097	271
