sample	contig_hit1_genus	contig_hit1_cumlength	contig_hit1_genus_fraction	contig_hit2_genus	contig_hit2_cumlength	contig_hit2_genus_fraction	contig_hit3_genus	contig_hit3_cumlength	contig_hit3_genus_fraction
sample3	Enterococcus	2870671	0.9886772971	unclassified	16974	0.0058459532	Lactococcus	15902	0.0054767496
sample5	Escherichia	48593	1	NA	NA	NA	NA	NA	NA
sample1	Escherichia	4926318	0.9922932035	unclassified	34797	0.0070090535	Salmonella	3464	6.97743e-4
